<?xml version="1.0" encoding="utf-8"?>
<!-- Generator: Adobe Illustrator 21.0.0, SVG Export Plug-In . SVG Version: 6.00 Build 0)  -->
<svg version="1.1" baseProfile="basic" id="logo-image"
	 xmlns="http://www.w3.org/2000/svg" xmlns:xlink="http://www.w3.org/1999/xlink" x="0px" y="0px" viewBox="0 0 171.5 166.5"
	 xml:space="preserve">
<polygon fill="#FFF00F" points="17.2,53 17.5,130.5 83.5,130.5 83.5,113.5 40.5,113.5 39.8,53 "/>
</svg>
