<?xml version="1.0" encoding="utf-8"?>
<!-- Generator: Adobe Illustrator 21.0.0, SVG Export Plug-In . SVG Version: 6.00 Build 0)  -->
<svg version="1.1" id="cloud-2" class='parallax-layer-5'  xmlns="http://www.w3.org/2000/svg" xmlns:xlink="http://www.w3.org/1999/xlink"  x="0px" y="0px" viewBox="0 0 148.7 105.6">
<path id="XMLID_455_" fill="#FFFFFF" d="M131.4,33.1L131.4,33.1c9.5,0,17.2,7,17.2,15.7c0,5.6-3.2,10.5-8,13.2c-0.3,4.4-2.9,8.2-6.7,10
	c0.1,0.4,0.1,0.8,0.1,1.3c0,4.7-3.8,8.5-8.5,8.5c-1,0-2-0.2-2.9-0.5c-2.3,4.3-6.6,7.3-11.7,7.9c-3,2-6.7,3.5-10.8,4
	c-0.9,7-6.9,12.4-14.2,12.4c-3.7,0-7.1-1.4-9.7-3.7c-2.5,1.7-5.5,2.6-8.8,2.6c-8.5,0-15.3-6.5-15.3-14.5c0-0.3,0-0.6,0-1
	c-2,0.7-4.3,1.1-6.6,1.1c-9,0-16.4-5.6-17.5-12.9c-2-0.5-3.7-1.4-5.3-2.4c-0.6,0-1.3,0.1-1.9,0.1C9.4,74.8,0,68,0,59.5
	C0,51.5,8.2,45,18.8,44.2c-0.4-1.2-0.6-2.5-0.6-3.8c0-8.3,7.8-15.1,17.4-15.1c4,0,7.7,1.2,10.7,3.2c0.3-0.2,0.7-0.4,1-0.5
	c0.3-0.8,0.7-1.6,1.2-2.4c-0.7-1.4-1-2.9-1-4.5c0-6.4,5.9-11.6,13.1-11.6c1.6,0,3.1,0.2,4.5,0.7c1.1-4.9,5.7-8.6,11.3-8.6
	c3.9,0,7.3,1.8,9.4,4.5c0.5-0.1,0.9-0.1,1.4-0.1c1.7,0,3.4,0.4,4.9,1C94.6,2.8,99.6,0,105.4,0c8.3,0,15,5.8,15,12.9
	c0,1.2-0.2,2.4-0.6,3.6c6.4,0,11.6,7.2,11.6,16.2C131.4,32.8,131.4,32.9,131.4,33.1z"/>
</svg>
