<?xml version="1.0" encoding="utf-8"?>
<!-- Generator: Adobe Illustrator 21.0.0, SVG Export Plug-In . SVG Version: 6.00 Build 0)  -->
<svg version="1.1" id="cloud-5"  xmlns="http://www.w3.org/2000/svg" xmlns:xlink="http://www.w3.org/1999/xlink"  class='parallax-layer-5' x="0px" y="0px" viewBox="0 0 159.8 104.3">
<path id="XMLID_458_" fill="#FFFFFF" d="M45.9,91.9c-4,1.1-8.4,1.8-13.1,1.8C14.7,93.7,0,84.1,0,72.4s14.7-21.2,32.8-21.2
	c0.3,0,0.6,0,0.8,0c-4.1-3.9-6.6-8.8-6.6-14.2c0-12.4,13.1-22.4,29.2-22.4c6.6,0,12.7,1.7,17.6,4.5l0-0.1c0-10.5,9-19,20.1-19
	C105,0,114,8.5,114,19c0,0.4,0,0.8,0,1.3c2.7-0.9,5.6-1.4,8.6-1.4c12.8,0,23.2,8.8,23.2,19.6c0,3.8-1.3,7.3-3.5,10.3
	c10.1,2.6,17.5,10.7,17.5,20.3c0,11.7-11,21.2-24.6,21.2c-0.9,0-1.8,0-2.7-0.1c-5.1,8.1-15.6,13.6-27.8,13.6
	c-7.4,0-14.3-2.1-19.6-5.5c-4.2,3.7-10.4,6-17.2,6C57.5,104.3,48.8,99.1,45.9,91.9z"/>
</svg>
