<?xml version="1.0" encoding="utf-8"?>
<!-- Generator: Adobe Illustrator 21.0.0, SVG Export Plug-In . SVG Version: 6.00 Build 0)  -->
<svg version="1.1" id="cloud-1" class='parallax-layer-5'  xmlns="http://www.w3.org/2000/svg" xmlns:xlink="http://www.w3.org/1999/xlink"  x="0px" y="0px" viewBox="0 0 150.7 108.2">
<path id="XMLID_457_" fill="#FFFFFF" d="M31.8,85C31,85,30.2,85,29.3,85C13.1,85,0,76.5,0,66c0-4.6,2.5-8.8,6.8-12.1
	c-0.3-1.1-0.5-2.3-0.5-3.5c0-8.2,7.6-15.1,17.9-16.9c0.5-9.5,9.6-17.3,21.5-19C46.8,6.3,53.8,0,62.3,0c4.4,0,8.3,1.7,11.3,4.4
	c2.9-1.9,6.5-3.1,10.3-3.1c9.9,0,17.9,7.6,17.9,17c0,0.4,0,0.8,0,1.1c2.4-0.8,5-1.3,7.7-1.3c10.5,0,19.2,6.6,20.5,15.2
	c4.9,1.3,8.9,4.3,11,8.1c5.5,1.7,9.5,6.8,9.5,12.9c0,5.6-3.4,10.4-8.3,12.4c-0.3,1.5-0.9,2.9-1.6,4.2c0.7,1.8,1.1,3.6,1.1,5.6
	c0,9.7-9.2,17.7-20.5,17.7c-4.7,0-9.1-1.4-12.6-3.7c-0.4,0.2-0.8,0.4-1.2,0.6c-3,7.7-11.5,13.2-21.5,13.2c-6.2,0-11.8-2.1-15.9-5.5
	c-3.2,5.6-10.9,9.5-20,9.5c-11.9,0-21.6-6.8-21.6-15.3C28.7,90,29.8,87.3,31.8,85z"/>
</svg>
