<?xml version="1.0" encoding="utf-8"?>
<svg version="1.1" id='flag-svg' class='parallax-layer-3'  baseProfile="tiny" xmlns="http://www.w3.org/2000/svg"  x="0px" y="0px" viewBox="0 0 201.1 291.6" overflow="scroll" xml:space="preserve">
<g id="flag-whole">
	<g id="stand">
		<rect x="47.7" y="39.7" fill="#FFF4F4" width="6.5" height="231.1"/>
		<g>
			<rect x="28.9" y="259.3" fill="#FFF4F4" width="44.1" height="9.9"/>
			<rect x="28.9" y="264.2" fill="#D7AFAF" width="44.1" height="4.9"/>
		</g>
		<g>
			<rect x="14" y="269.1" fill="#FFF4F4" width="73.9" height="16.5"/>
			<rect x="14" y="277.4" fill="#D7AFAF" width="73.9" height="8.2"/>
		</g>
	</g>
	<g id="nepal">
		<path id="flag-outline" fill="#DC0F38" stroke="#00338F" stroke-width="8" stroke-miterlimit="10" d="M47.8,34.3v114.2
			c0,0,21.4,7.1,50.1,0.7c29.1-6.5,50.7-29.5,86-10.3c0,0-30.8-53.9-82.2-42.4c0,0,39.8-23.1,72.6-16.7c0,0-16.1-27-63.6-17.3
			C110.7,62.6,84.4,70.9,47.8,34.3z"/>
		<path id="moon" fill="#FFFFFF" d="M81.1,90.6c11.3,0,20.4-7.5,20.4-16.9c-1.8,3.8-5,6.9-9.2,8.9l-1.7-1.1l3.4-2.1l-4.1-0.9
			l2.2-3.1l-4.3,0.5l0.6-3.5l-3.7,1.8l-1.1-3.5l-2.6,2.8l-2.6-2.8l-1.1,3.4l-3.7-1.8l0.6,3.5l-4.3-0.5l2.2,3.1l-4.2,0.9l3.4,2.1
			l-1.7,1.1c-4-2-7.3-5-9.2-8.9C60.7,83.1,69.8,90.6,81.1,90.6L81.1,90.6z"/>
		<path id="sun" fill="#FFFFFF" d="M71.7,116.6l-9.1-0.9l5.5,6.1l-8.5,3l8.5,3l-5.5,6.1l9.1-0.9l-1.1,7.6l7.3-4.6l3.6,7l3.6-7
			l7.4,4.6l-1.1-7.6l9.1,0.9l-5.5-6.1l8.5-3l-8.5-3l5.5-6.1l-9.1,0.9l1.1-7.6l-7.3,4.6l-3.6-7l-3.6,7l-7.4-4.6L71.7,116.6
			L71.7,116.6z"/>
	</g>
</g>
</svg>
