<?xml version="1.0" encoding="utf-8"?>
<!-- Generator: Adobe Illustrator 21.0.0, SVG Export Plug-In . SVG Version: 6.00 Build 0)  -->
<svg version="1.1" id="Layer_1" xmlns="http://www.w3.org/2000/svg" xmlns:xlink="http://www.w3.org/1999/xlink" x="0px" y="0px"
	 viewBox="0 0 724.7 753" style="enable-background:new 0 0 724.7 753;" xml:space="preserve">
<style type="text/css">
	.st0{fill:#EB1C30;}
	.st1{fill:#231F20;}
	.st2{fill:#FFFFFF;}
</style>
<path id="wall" class="st0" d="M155.1,173.4c0,0-114,57.9-113.9,71.1c0,21,0,452,0,452S41.5,723,76.5,723h557
	c0,0,40.7,7.6,48.3-27.4c0,0,0-440,0-449s-112.3-72.1-112.3-72.1l-167-95.6c0,0-20.7-12.1-49.7-12.4
	C323.8,66.1,155.1,173.4,155.1,173.4z"/>
<path id="roof" class="st1" d="M344,5.8c8.5-5.2,19.2-5.9,28.8-3.6c5.2,1.2,9.5,4.4,14.1,6.9c27.8,15.7,55.4,31.9,83.3,47.5
	c0.1-7.2-0.1-14.4,0.1-21.6c1.1-1.2,2.9-0.8,4.4-0.9c24.9,0,49.8,0,74.7,0c0.3,22.1,0,44.2,0.1,66.3c-0.4,1.5,1.1,2.3,2.1,2.9
	c34.9,19.8,69.6,39.9,104.5,59.7c22.6,13.2,45.6,25.8,68.1,39.2c-0.9,3.8-3.7,6.6-6.2,9.4c-6.4,6.8-13.7,12.7-21.1,18.4
	c-5.2-9.9-12.2-19-21.2-25.7c-5.4-4.1-11.5-7.2-17.3-10.7C572.8,144.8,487.5,95.8,402,46.9c-7.3-3.9-15.4-6.3-23.6-7.5
	c-8.5-1.1-17.3-1.1-25.8,0c-2,0.3-4,0.6-6,1c-7.8,1.7-15.4,4.6-22.2,8.9c-86.9,49.8-173.9,99.5-260.8,149.3
	c-13.6,7.5-24.4,19.5-31,33.5c-2.1-0.9-4.1-1.8-5.9-3.3c-6.7-5.2-13.2-10.7-19.1-16.7c-2.7-3-5.8-5.9-6.7-9.9
	c12.6-7.6,25.5-14.8,38.3-22.1C140.9,122,242.4,63.9,344,5.8z"/>
<g id="heart">
	<path class="st2" d="M722,350.4c-7.5,59-19.3,93.9-34.5,129c-19,43.1-55.4,87.1-87.7,121.2c-39.1,41.1-91.8,79.7-141.3,107.3
		c-21.9,12.3-61,35.7-84.6,44.4c-3.5,1.1-7.3,0.4-10.9,0.6c-4.6-0.2-9.3,0.4-13.9-0.3c-41-14.8-89.7-42.5-125.6-67.3
		c-30.2-20.9-73-52.8-98.5-79.2C99,579,61.9,533.7,43.6,500.9C22.9,464.2,5.5,381.4,5.5,381.4c-38-227.4,171-213.3,171-213.3
		c39.8-6.1,112.3,15.3,141.6,36.3c20.9,10.9,27.1,20.4,41.8,38.9c22.9-28.8,56.4-53.8,91.8-63.6c12-3.4,37.7-9,50.1-10.2
		C501.8,169.5,746.5,129.4,722,350.4z"/>
	<path class="st0" d="M190,203c39.8-6.1,81.7,0,117.2,19.2c20.9,10.9,39.4,26.3,54.1,44.7c22.9-28.8,55.5-49.5,90.9-59.3
		c12-3.4,24.4-5.1,36.7-6.3c23.2-1.5,46.6,0.9,68.8,7.6c34,10.3,65.2,30.6,87.3,58.5c21,25.9,33.3,58.7,34.3,92.1
		c0.6,38.4-8.6,76.5-23.8,111.6c-19,43.1-46.8,81.9-79.1,115.9c-39.1,41.1-84.6,76.2-134.2,103.8c-21.9,12.3-44.9,22.9-68.5,31.6
		c-3.5,1.1-7.3,0.4-10.9,0.6c-4.6-0.2-9.3,0.4-13.9-0.3c-41-14.8-79.6-35.9-115.5-60.7c-30.2-20.9-58.5-44.7-84-71.1
		c-26-27.1-49.3-56.9-67.6-89.7C61.1,464.5,47,423.6,43.6,381.5c-1.6-21.9-0.4-44.4,6.9-65.2c9.2-28.6,27.2-53.8,50.1-73.1
		C126.1,222,157.4,208,190,203z"/>
</g>
</svg>
