<?xml version="1.0" encoding="utf-8"?>
<!-- Generator: Adobe Illustrator 21.0.0, SVG Export Plug-In . SVG Version: 6.00 Build 0)  -->
<svg version="1.1" id="Layer_1" xmlns="http://www.w3.org/2000/svg" xmlns:xlink="http://www.w3.org/1999/xlink" x="0px" y="0px"
	 viewBox="0 0 98.8 312.7" style="enable-background:new 0 0 98.8 312.7;" xml:space="preserve">
<style type="text/css">
	.st0{fill:none;stroke:#FDF6E7;stroke-width:2;stroke-miterlimit:10;}
	.st1{fill:#F1615D;}
	.st2{opacity:0.4;fill:#F1615D;enable-background:new    ;}
	.st3{opacity:0.3;}
	.st4{opacity:0.3;fill:#F1615D;enable-background:new    ;}
	.st5{enable-background:new    ;}
	.st6{font-family:'Pangolin-Regular';}
	.st7{font-size:17px;}
</style>
<title>Asset 5</title>
<g>
	<g id="Layer_2">
		<g id="Layer_1-2">
			<path class="st0" d="M51.5,114.2c0.7,46.3-14.1,76.5-30.1,119.5c-7,21-5.1,57.9-1.4,78.9"/>
			<path class="st1" d="M40,129.6c3.1-4.7,6.3-10.5,9.4-16.3c3.1,5.8,6.3,11.6,9.4,16.3C52.6,131.1,46.2,131.1,40,129.6z"/>
			<path class="st2" d="M56.2,125.5c-2.3-3.8-4.6-8-6.8-12.2c-1.8,3.4-3.6,6.7-5.5,9.8C48.1,123.3,52.3,124,56.2,125.5z"/>
			<path class="st1" d="M49.4,132.1c-3.3,0-6.5-0.4-9.7-1.1c-0.8-0.2-1.3-1-1.1-1.8s1-1.3,1.8-1.1c6,1.4,12.2,1.4,18.1,0
				c0.8-0.2,1.6,0.3,1.8,1.1s-0.3,1.6-1.1,1.8C55.9,131.8,52.7,132.1,49.4,132.1z"/>
			<g class="st3">
				<path class="st1" d="M60.2,129.2c-0.2-0.8-1-1.3-1.8-1.1c0,0,0,0,0,0c-0.7,0.2-1.4,0.3-2.2,0.4c0.2,1.1-0.1,2.2-0.8,3.1
					c1.2-0.2,2.4-0.4,3.6-0.7C59.9,130.8,60.4,130,60.2,129.2z"/>
			</g>
			<path class="st1" d="M98.8,51.8c0,32.3-22.1,68-49.4,68S0,84.1,0,51.8S22.1,0,49.4,0S98.8,19.4,98.8,51.8z"/>
			<path class="st4" d="M90.1,73.5c-3,5-6.6,9.7-10.6,13.9c-3.7,3.9-7.9,7.8-12.8,9.9c-3.7,1.6-7.6,4-11.7,4.6
				c-9.5,1.5-13.1,2.3-22.8-0.1c-7.8-1.9-16.8-7.1-22-13.3c-1-1-1.8-2-2.7-3c8.8,19.2,24.2,34,41.8,34c27.2,0,49.2-35.5,49.4-67.7
				C97,59.6,94.1,66.9,90.1,73.5z"/>
			
				<ellipse transform="matrix(0.6829 -0.7305 0.7305 0.6829 -10.422 24.3059)" class="st4" cx="22.8" cy="24.2" rx="18.5" ry="8.5"/>
		</g>
	</g>
</g>
<text transform="matrix(1 0 0 1 28.772 29.8801)" class="st5"><tspan x="0" y="0" class="st6 st7">From </tspan><tspan x="-10.3" y="20.4" class="st6 st7">8:30 AM </tspan><tspan x="12.3" y="40.8" class="st6 st7">to </tspan><tspan x="-8" y="61.2" class="st6 st7">5:30 PM</tspan></text>
</svg>
